{
  "expoServerPort": 19000,
  "packagerPort": 19001,
  "packagerPid": 18888,
  "expoServerNgrokUrl": "https://qj-3jx.anonymous.carschool.exp.direct",
  "packagerNgrokUrl": "https://packager.qj-3jx.anonymous.carschool.exp.direct",
  "ngrokPid": 9372,
  "devToolsPort": 19002
}
